^C:\USERS\BZAWO\DROPBOX\SCHOOL\COMPUTER SCIENCE 2\LAB 1\TEST1.CPP|C:\USERS\BZAWO\DROPBOX\SCHOOL\COMPUTER SCIENCE 2\LAB 1\TEXTIO.CPP
C:\USERS\BZAWO\DROPBOX\SCHOOL\COMPUTER SCIENCE 2\LAB 1\LAB 1\LAB 1\DEBUG\VC141.PDB
C:\USERS\BZAWO\DROPBOX\SCHOOL\COMPUTER SCIENCE 2\LAB 1\LAB 1\LAB 1\DEBUG\VC141.IDB
C:\USERS\BZAWO\DROPBOX\SCHOOL\COMPUTER SCIENCE 2\LAB 1\LAB 1\LAB 1\DEBUG\TEST1.OBJ
^C:\USERS\BZAWO\DROPBOX\SCHOOL\COMPUTER SCIENCE 2\LAB 1\TEST1.CPP
C:\USERS\BZAWO\DROPBOX\SCHOOL\COMPUTER SCIENCE 2\LAB 1\LAB 1\LAB 1\DEBUG\VC141.PDB
C:\USERS\BZAWO\DROPBOX\SCHOOL\COMPUTER SCIENCE 2\LAB 1\LAB 1\LAB 1\DEBUG\VC141.IDB
C:\USERS\BZAWO\DROPBOX\SCHOOL\COMPUTER SCIENCE 2\LAB 1\LAB 1\LAB 1\DEBUG\TEST1.OBJ
