^C:\USERS\BZAWO\DROPBOX\SCHOOL\COMPUTER SCIENCE 2\LAB 1\LAB 1\LAB 1\TEXT.CPP
/c /ZI /JMC /nologo /W3 /WX- /diagnostics:classic /sdl /Od /D _MBCS /Gm- /EHsc /RTC1 /MDd /GS /fp:precise /permissive- /Zc:wchar_t /Zc:forScope /Zc:inline /Fo"X64\DEBUG\\" /Fd"X64\DEBUG\VC141.PDB" /Gd /TP /FC C:\USERS\BZAWO\DROPBOX\SCHOOL\COMPUTER SCIENCE 2\LAB 1\LAB 1\LAB 1\TEXT.CPP
^C:\USERS\BZAWO\DROPBOX\SCHOOL\COMPUTER SCIENCE 2\LAB 1\LAB 1\LAB 1\TEST1.CPP
/c /ZI /JMC /nologo /W3 /WX- /diagnostics:classic /sdl /Od /D _MBCS /Gm- /EHsc /RTC1 /MDd /GS /fp:precise /permissive- /Zc:wchar_t /Zc:forScope /Zc:inline /Fo"X64\DEBUG\\" /Fd"X64\DEBUG\VC141.PDB" /Gd /TP /FC C:\USERS\BZAWO\DROPBOX\SCHOOL\COMPUTER SCIENCE 2\LAB 1\LAB 1\LAB 1\TEST1.CPP
